[
    {
        "username":"rafisyarif",
        "name": "Rafi Syarif",
        "password": "12345"
    },
    {
        "username":"syarif",
        "name": "Rafi Syarif H",
        "password": "1234567"
    }
]
